{
  "protocol": "PsBabyM1eUXZseaJdmXFApDSBqj8YBfwELoxZHHW77EMcAbbwAS",
  "chain_id": "NetXdQprcVkpaWU",
  "hash": "BMG4Sn6KYbovad4A3YQSXJquPFWVYRrWRrmYCMvn5JQALhQ36c6",
  "header": {
    "level": 721654,
    "proto": 5,
    "predecessor": "BMUWXwqnvYG2M6T4LKotUVkp8wsQbrcBwi9a1SNwQQG4HV6CbhN",
    "timestamp": "2019-12-04T16:40:38Z",
    "validation_pass": 4,
    "operations_hash": "LLoa8dPxKFXsWoPgmkNH2KRnMh66Y18qt4JpTs5BiwQh2SepfmHkT",
    "fitness": ["01", "00000000000102f6"],
    "context": "CoVMt82Fd5HyorWooKz7ssYDy9pyW7cWFPAgPK4EaErHFQydx12D",
    "priority": 0,
    "proof_of_work_nonce": "a7d357bb584ec11b",
    "signature": "siggVrsGdWKrEKzHikAwQjSEv68qgPdzBRzpJnfYVBYjXJrmm2HjghAi2KGvztFN5r4VuaDVtDVeYTMZ2JorSDSCsYxYpG3a"
  },
  "metadata": {
    "protocol": "PsBabyM1eUXZseaJdmXFApDSBqj8YBfwELoxZHHW77EMcAbbwAS",
    "next_protocol": "PsBabyM1eUXZseaJdmXFApDSBqj8YBfwELoxZHHW77EMcAbbwAS",
    "test_chain_status": {
      "status": "not_running"
    },
    "max_operations_ttl": 60,
    "max_operation_data_length": 16384,
    "max_block_header_length": 238,
    "max_operation_list_length": [{
      "max_size": 32768,
      "max_op": 32
    }, {
      "max_size": 32768
    }, {
      "max_size": 135168,
      "max_op": 132
    }, {
      "max_size": 524288
    }],
    "baker": "tz2TSvNTh2epDMhZHrw73nV9piBX7kLZ9K9m",
    "level": {
      "level": 721654,
      "level_position": 721653,
      "cycle": 176,
      "cycle_position": 757,
      "voting_period": 22,
      "voting_period_position": 757,
      "expected_commitment": false
    },
    "voting_period_kind": "proposal",
    "nonce_hash": null,
    "consumed_gas": "0",
    "deactivated": [],
    "balance_updates": [{
      "kind": "contract",
      "contract": "tz2TSvNTh2epDMhZHrw73nV9piBX7kLZ9K9m",
      "change": "-512000000"
    }, {
      "kind": "freezer",
      "category": "deposits",
      "delegate": "tz2TSvNTh2epDMhZHrw73nV9piBX7kLZ9K9m",
      "cycle": 176,
      "change": "512000000"
    }, {
      "kind": "freezer",
      "category": "rewards",
      "delegate": "tz2TSvNTh2epDMhZHrw73nV9piBX7kLZ9K9m",
      "cycle": 176,
      "change": "14400000"
    }]
  },
  "operations": [
    [{
      "protocol": "PsBabyM1eUXZseaJdmXFApDSBqj8YBfwELoxZHHW77EMcAbbwAS",
      "chain_id": "NetXdQprcVkpaWU",
      "hash": "oosFbxEyiU9ebHtXbDhGQWT1goPLTSJCANZsbrSDuJdFtNsbiUd",
      "branch": "BMUWXwqnvYG2M6T4LKotUVkp8wsQbrcBwi9a1SNwQQG4HV6CbhN",
      "contents": [{
        "kind": "endorsement",
        "level": 721653,
        "metadata": {
          "balance_updates": [{
            "kind": "contract",
            "contract": "tz1LBEKXaxQbd5Gtzbc1ATCwc3pppu81aWGc",
            "change": "-64000000"
          }, {
            "kind": "freezer",
            "category": "deposits",
            "delegate": "tz1LBEKXaxQbd5Gtzbc1ATCwc3pppu81aWGc",
            "cycle": 176,
            "change": "64000000"
          }, {
            "kind": "freezer",
            "category": "rewards",
            "delegate": "tz1LBEKXaxQbd5Gtzbc1ATCwc3pppu81aWGc",
            "cycle": 176,
            "change": "2000000"
          }],
          "delegate": "tz1LBEKXaxQbd5Gtzbc1ATCwc3pppu81aWGc",
          "slots": [13]
        }
      }],
      "signature": "sigcAxNXBQt5as8McK8hvwcPw8CTXsrj6QCxCHW9MWYdRs6U3Wxj7BxGwYMe22xU6HVLk7VeoeteR7wzMKJm6DkGPtM64q7a"
    }, {
      "protocol": "PsBabyM1eUXZseaJdmXFApDSBqj8YBfwELoxZHHW77EMcAbbwAS",
      "chain_id": "NetXdQprcVkpaWU",
      "hash": "opGN9wxJdAXdoJZh6c2UtLMeEEBZJjLHtEzne8GU3emtgyPraMn",
      "branch": "BMUWXwqnvYG2M6T4LKotUVkp8wsQbrcBwi9a1SNwQQG4HV6CbhN",
      "contents": [{
        "kind": "endorsement",
        "level": 721653,
        "metadata": {
          "balance_updates": [{
            "kind": "contract",
            "contract": "tz1bZ8vsMAXmaWEV7FRnyhcuUs2fYMaQ6Hkk",
            "change": "-64000000"
          }, {
            "kind": "freezer",
            "category": "deposits",
            "delegate": "tz1bZ8vsMAXmaWEV7FRnyhcuUs2fYMaQ6Hkk",
            "cycle": 176,
            "change": "64000000"
          }, {
            "kind": "freezer",
            "category": "rewards",
            "delegate": "tz1bZ8vsMAXmaWEV7FRnyhcuUs2fYMaQ6Hkk",
            "cycle": 176,
            "change": "2000000"
          }],
          "delegate": "tz1bZ8vsMAXmaWEV7FRnyhcuUs2fYMaQ6Hkk",
          "slots": [31]
        }
      }],
      "signature": "sigeHCg9DwkQkzLfUTc8hh1a5DxvpyJ9gWrjC8Y8GLzrHsd3KyT4GMWKpxPNLq5B5z9vA36z83yHZT8tVBDUUzbFE6U6Sjgw"
    }, {
      "protocol": "PsBabyM1eUXZseaJdmXFApDSBqj8YBfwELoxZHHW77EMcAbbwAS",
      "chain_id": "NetXdQprcVkpaWU",
      "hash": "onqVpA5HQTnHG3qadzskNEMtoZase6h55k5yFb3mtRH7vx6t3Jy",
      "branch": "BMUWXwqnvYG2M6T4LKotUVkp8wsQbrcBwi9a1SNwQQG4HV6CbhN",
      "contents": [{
        "kind": "endorsement",
        "level": 721653,
        "metadata": {
          "balance_updates": [{
            "kind": "contract",
            "contract": "tz1c3Wh8gNMMsYwZd67JndQpYxdaaPUV27E7",
            "change": "-64000000"
          }, {
            "kind": "freezer",
            "category": "deposits",
            "delegate": "tz1c3Wh8gNMMsYwZd67JndQpYxdaaPUV27E7",
            "cycle": 176,
            "change": "64000000"
          }, {
            "kind": "freezer",
            "category": "rewards",
            "delegate": "tz1c3Wh8gNMMsYwZd67JndQpYxdaaPUV27E7",
            "cycle": 176,
            "change": "2000000"
          }],
          "delegate": "tz1c3Wh8gNMMsYwZd67JndQpYxdaaPUV27E7",
          "slots": [4]
        }
      }],
      "signature": "sigtfAbRpqDHVkejuNvJTZpbBPRyL4n9SSWuBGc3ScVqksnjHPDwddJQEeYDU2He3WywUkytvxMoRCoiFhCkhyud2fJUwfiW"
    }, {
      "protocol": "PsBabyM1eUXZseaJdmXFApDSBqj8YBfwELoxZHHW77EMcAbbwAS",
      "chain_id": "NetXdQprcVkpaWU",
      "hash": "ooAuq6FTwygXCMkYQbm24tviMa6VpQbdcTQpPt7c4aTM3CdoSSf",
      "branch": "BMUWXwqnvYG2M6T4LKotUVkp8wsQbrcBwi9a1SNwQQG4HV6CbhN",
      "contents": [{
        "kind": "endorsement",
        "level": 721653,
        "metadata": {
          "balance_updates": [{
            "kind": "contract",
            "contract": "tz1P2Po7YM526ughEsRbY4oR9zaUPDZjxFrb",
            "change": "-128000000"
          }, {
            "kind": "freezer",
            "category": "deposits",
            "delegate": "tz1P2Po7YM526ughEsRbY4oR9zaUPDZjxFrb",
            "cycle": 176,
            "change": "128000000"
          }, {
            "kind": "freezer",
            "category": "rewards",
            "delegate": "tz1P2Po7YM526ughEsRbY4oR9zaUPDZjxFrb",
            "cycle": 176,
            "change": "4000000"
          }],
          "delegate": "tz1P2Po7YM526ughEsRbY4oR9zaUPDZjxFrb",
          "slots": [28, 9]
        }
      }],
      "signature": "sigq4wSMv5rm9v5JuPUZ2CnReAXLzVZczpGEJNvC2d4srcAriFsL42m45rEXo42Qy6DZcNb4wzVwhoRqT9g4qZaHMX3yewB5"
    }, {
      "protocol": "PsBabyM1eUXZseaJdmXFApDSBqj8YBfwELoxZHHW77EMcAbbwAS",
      "chain_id": "NetXdQprcVkpaWU",
      "hash": "oos2WGWYiS9g49hC4XAjBibjLAELbARS5ovF55XQR52WJurFZUS",
      "branch": "BMUWXwqnvYG2M6T4LKotUVkp8wsQbrcBwi9a1SNwQQG4HV6CbhN",
      "contents": [{
        "kind": "endorsement",
        "level": 721653,
        "metadata": {
          "balance_updates": [{
            "kind": "contract",
            "contract": "tz1cX93Q3KsiTADpCC4f12TBvAmS5tw7CW19",
            "change": "-64000000"
          }, {
            "kind": "freezer",
            "category": "deposits",
            "delegate": "tz1cX93Q3KsiTADpCC4f12TBvAmS5tw7CW19",
            "cycle": 176,
            "change": "64000000"
          }, {
            "kind": "freezer",
            "category": "rewards",
            "delegate": "tz1cX93Q3KsiTADpCC4f12TBvAmS5tw7CW19",
            "cycle": 176,
            "change": "2000000"
          }],
          "delegate": "tz1cX93Q3KsiTADpCC4f12TBvAmS5tw7CW19",
          "slots": [7]
        }
      }],
      "signature": "sigonX8XLCTS5JkQKxwQC23ZdxK7zJ4bGxW1x788mWyCVqGdowhu524Y68X7cNwKrPtQCd3AVBmAcQuMBircbDKAPcmUz4qC"
    }, {
      "protocol": "PsBabyM1eUXZseaJdmXFApDSBqj8YBfwELoxZHHW77EMcAbbwAS",
      "chain_id": "NetXdQprcVkpaWU",
      "hash": "oonZ5J6RggUCXDUckCxg2rMF7f5SSrdCpxvDpBUH3FQu2EdhgvC",
      "branch": "BMUWXwqnvYG2M6T4LKotUVkp8wsQbrcBwi9a1SNwQQG4HV6CbhN",
      "contents": [{
        "kind": "endorsement",
        "level": 721653,
        "metadata": {
          "balance_updates": [{
            "kind": "contract",
            "contract": "tz1ZNWFe3LmEJYTydctcgD6a5Apemwdtimn4",
            "change": "-64000000"
          }, {
            "kind": "freezer",
            "category": "deposits",
            "delegate": "tz1ZNWFe3LmEJYTydctcgD6a5Apemwdtimn4",
            "cycle": 176,
            "change": "64000000"
          }, {
            "kind": "freezer",
            "category": "rewards",
            "delegate": "tz1ZNWFe3LmEJYTydctcgD6a5Apemwdtimn4",
            "cycle": 176,
            "change": "2000000"
          }],
          "delegate": "tz1ZNWFe3LmEJYTydctcgD6a5Apemwdtimn4",
          "slots": [25]
        }
      }],
      "signature": "sigkSa5WxS5mWufiVxuME4NrFkQr71sPbpAzJoQm52okK8zXYSCqZ5wGeDG4UmPAuPkPoHQV85y4HR4XTHM7FshpXaPVW64m"
    }, {
      "protocol": "PsBabyM1eUXZseaJdmXFApDSBqj8YBfwELoxZHHW77EMcAbbwAS",
      "chain_id": "NetXdQprcVkpaWU",
      "hash": "ooiHArYsxVDeA9Nph1tmfzneZeNoEzgpysmmQpB8kFPGAFvzqTU",
      "branch": "BMUWXwqnvYG2M6T4LKotUVkp8wsQbrcBwi9a1SNwQQG4HV6CbhN",
      "contents": [{
        "kind": "endorsement",
        "level": 721653,
        "metadata": {
          "balance_updates": [{
            "kind": "contract",
            "contract": "tz3bvNMQ95vfAYtG8193ymshqjSvmxiCUuR5",
            "change": "-128000000"
          }, {
            "kind": "freezer",
            "category": "deposits",
            "delegate": "tz3bvNMQ95vfAYtG8193ymshqjSvmxiCUuR5",
            "cycle": 176,
            "change": "128000000"
          }, {
            "kind": "freezer",
            "category": "rewards",
            "delegate": "tz3bvNMQ95vfAYtG8193ymshqjSvmxiCUuR5",
            "cycle": 176,
            "change": "4000000"
          }],
          "delegate": "tz3bvNMQ95vfAYtG8193ymshqjSvmxiCUuR5",
          "slots": [27, 22]
        }
      }],
      "signature": "sigufnJq2VD5w49Cd5n2cB8sYDXv3yNpjc3wTfpT5njbPNSeXPtpaSgnJhmzcuRXQfrYNpuLg9xRBsiaWnGBJijjwBtWTgTj"
    }, {
      "protocol": "PsBabyM1eUXZseaJdmXFApDSBqj8YBfwELoxZHHW77EMcAbbwAS",
      "chain_id": "NetXdQprcVkpaWU",
      "hash": "opBJbMyEAQz1vEnEz4jQYKsUJyNEgzrtV3CckycpxBSrGyyWJdR",
      "branch": "BMUWXwqnvYG2M6T4LKotUVkp8wsQbrcBwi9a1SNwQQG4HV6CbhN",
      "contents": [{
        "kind": "endorsement",
        "level": 721653,
        "metadata": {
          "balance_updates": [{
            "kind": "contract",
            "contract": "tz3RDC3Jdn4j15J7bBHZd29EUee9gVB1CxD9",
            "change": "-64000000"
          }, {
            "kind": "freezer",
            "category": "deposits",
            "delegate": "tz3RDC3Jdn4j15J7bBHZd29EUee9gVB1CxD9",
            "cycle": 176,
            "change": "64000000"
          }, {
            "kind": "freezer",
            "category": "rewards",
            "delegate": "tz3RDC3Jdn4j15J7bBHZd29EUee9gVB1CxD9",
            "cycle": 176,
            "change": "2000000"
          }],
          "delegate": "tz3RDC3Jdn4j15J7bBHZd29EUee9gVB1CxD9",
          "slots": [1]
        }
      }],
      "signature": "sigUMyLPz4edbCS93r42HzgtRnMHyBEene4fpfNEiq5cNPSKy3SYNByn8bCxuDoWgFUeUidrs5P87dXRPoKQFWbxsLqZQarU"
    }, {
      "protocol": "PsBabyM1eUXZseaJdmXFApDSBqj8YBfwELoxZHHW77EMcAbbwAS",
      "chain_id": "NetXdQprcVkpaWU",
      "hash": "onvBE2k942b1rDD7dLandNWwUrVoEwoP9avCYbaxboBfhRrtJN9",
      "branch": "BMUWXwqnvYG2M6T4LKotUVkp8wsQbrcBwi9a1SNwQQG4HV6CbhN",
      "contents": [{
        "kind": "endorsement",
        "level": 721653,
        "metadata": {
          "balance_updates": [{
            "kind": "contract",
            "contract": "tz1NortRftucvAkD1J58L32EhSVrQEWJCEnB",
            "change": "-128000000"
          }, {
            "kind": "freezer",
            "category": "deposits",
            "delegate": "tz1NortRftucvAkD1J58L32EhSVrQEWJCEnB",
            "cycle": 176,
            "change": "128000000"
          }, {
            "kind": "freezer",
            "category": "rewards",
            "delegate": "tz1NortRftucvAkD1J58L32EhSVrQEWJCEnB",
            "cycle": 176,
            "change": "4000000"
          }],
          "delegate": "tz1NortRftucvAkD1J58L32EhSVrQEWJCEnB",
          "slots": [23, 12]
        }
      }],
      "signature": "sige9pnkpjwjviXBELYapdzLmXBr75fXwN8SqvmaSWBaw2uPrwtXMJJ5LUbxrWz9EV8enUNGYeqDQ11mWkDwD54MrYhDGCNt"
    }, {
      "protocol": "PsBabyM1eUXZseaJdmXFApDSBqj8YBfwELoxZHHW77EMcAbbwAS",
      "chain_id": "NetXdQprcVkpaWU",
      "hash": "ooxjkU6hbUbfigB8Y11e1ZyXPgzP2NjqA8jr6QmvQQ2tCrs7qZj",
      "branch": "BMUWXwqnvYG2M6T4LKotUVkp8wsQbrcBwi9a1SNwQQG4HV6CbhN",
      "contents": [{
        "kind": "endorsement",
        "level": 721653,
        "metadata": {
          "balance_updates": [{
            "kind": "contract",
            "contract": "tz1eEnQhbwf6trb8Q8mPb2RaPkNk2rN7BKi8",
            "change": "-64000000"
          }, {
            "kind": "freezer",
            "category": "deposits",
            "delegate": "tz1eEnQhbwf6trb8Q8mPb2RaPkNk2rN7BKi8",
            "cycle": 176,
            "change": "64000000"
          }, {
            "kind": "freezer",
            "category": "rewards",
            "delegate": "tz1eEnQhbwf6trb8Q8mPb2RaPkNk2rN7BKi8",
            "cycle": 176,
            "change": "2000000"
          }],
          "delegate": "tz1eEnQhbwf6trb8Q8mPb2RaPkNk2rN7BKi8",
          "slots": [14]
        }
      }],
      "signature": "sigfJWmVJs5eNCm7Msv16Wjrogqr7V6K5rg2JxEfgpsbsbG8Yw7NvvnfXfx2rUM1u4fXteHrC98bpjZtJqAWCfvNkA8hdgxn"
    }, {
      "protocol": "PsBabyM1eUXZseaJdmXFApDSBqj8YBfwELoxZHHW77EMcAbbwAS",
      "chain_id": "NetXdQprcVkpaWU",
      "hash": "onzXaskZVCcKAt5eWLSLDZTN8dHttLeM8zGpkeR8yzAo9TanQdu",
      "branch": "BMUWXwqnvYG2M6T4LKotUVkp8wsQbrcBwi9a1SNwQQG4HV6CbhN",
      "contents": [{
        "kind": "endorsement",
        "level": 721653,
        "metadata": {
          "balance_updates": [{
            "kind": "contract",
            "contract": "tz1ei4WtWEMEJekSv8qDnu9PExG6Q8HgRGr3",
            "change": "-64000000"
          }, {
            "kind": "freezer",
            "category": "deposits",
            "delegate": "tz1ei4WtWEMEJekSv8qDnu9PExG6Q8HgRGr3",
            "cycle": 176,
            "change": "64000000"
          }, {
            "kind": "freezer",
            "category": "rewards",
            "delegate": "tz1ei4WtWEMEJekSv8qDnu9PExG6Q8HgRGr3",
            "cycle": 176,
            "change": "2000000"
          }],
          "delegate": "tz1ei4WtWEMEJekSv8qDnu9PExG6Q8HgRGr3",
          "slots": [20]
        }
      }],
      "signature": "sigd54vrJBNLL4vp8rMeZ8maNvAnDBcGLKc4pbMPCYNmWgb42hYeDe3hJdf68avYqqfxHxwLvPVY2f3sHZtom2SLH5SXpfvH"
    }, {
      "protocol": "PsBabyM1eUXZseaJdmXFApDSBqj8YBfwELoxZHHW77EMcAbbwAS",
      "chain_id": "NetXdQprcVkpaWU",
      "hash": "ooGwGH4mFrWpkdKtqQjpyrfwZbH36KP4cAKhSKky6rjttYUKSet",
      "branch": "BMUWXwqnvYG2M6T4LKotUVkp8wsQbrcBwi9a1SNwQQG4HV6CbhN",
      "contents": [{
        "kind": "endorsement",
        "level": 721653,
        "metadata": {
          "balance_updates": [{
            "kind": "contract",
            "contract": "tz1TzaNn7wSQSP5gYPXCnNzBCpyMiidCq1PX",
            "change": "-64000000"
          }, {
            "kind": "freezer",
            "category": "deposits",
            "delegate": "tz1TzaNn7wSQSP5gYPXCnNzBCpyMiidCq1PX",
            "cycle": 176,
            "change": "64000000"
          }, {
            "kind": "freezer",
            "category": "rewards",
            "delegate": "tz1TzaNn7wSQSP5gYPXCnNzBCpyMiidCq1PX",
            "cycle": 176,
            "change": "2000000"
          }],
          "delegate": "tz1TzaNn7wSQSP5gYPXCnNzBCpyMiidCq1PX",
          "slots": [24]
        }
      }],
      "signature": "siguAtB1UC18EKuMptsf2q3Ar5GgA2J3EKp4sFVRSAxzmf3DTBwBHhsbJmDQ8fxJiHoVL1Us4KCJwWXP75gYn5wRu2Ur9Lvw"
    }, {
      "protocol": "PsBabyM1eUXZseaJdmXFApDSBqj8YBfwELoxZHHW77EMcAbbwAS",
      "chain_id": "NetXdQprcVkpaWU",
      "hash": "oo97oHjcZjPCYwVXuER78D1RDc1qieJJ6moyuphiMRWcHr6k8VL",
      "branch": "BMUWXwqnvYG2M6T4LKotUVkp8wsQbrcBwi9a1SNwQQG4HV6CbhN",
      "contents": [{
        "kind": "endorsement",
        "level": 721653,
        "metadata": {
          "balance_updates": [{
            "kind": "contract",
            "contract": "tz1VmiY38m3y95HqQLjMwqnMS7sdMfGomzKi",
            "change": "-64000000"
          }, {
            "kind": "freezer",
            "category": "deposits",
            "delegate": "tz1VmiY38m3y95HqQLjMwqnMS7sdMfGomzKi",
            "cycle": 176,
            "change": "64000000"
          }, {
            "kind": "freezer",
            "category": "rewards",
            "delegate": "tz1VmiY38m3y95HqQLjMwqnMS7sdMfGomzKi",
            "cycle": 176,
            "change": "2000000"
          }],
          "delegate": "tz1VmiY38m3y95HqQLjMwqnMS7sdMfGomzKi",
          "slots": [5]
        }
      }],
      "signature": "sigqPhEmEZnpNRSidjE9FM4131xDigSz14xyLneUnQCJzoF2yqPES5bfAczRt9fK7MgcTwbbVWyRLv8GakGtJqgFenQocxWf"
    }, {
      "protocol": "PsBabyM1eUXZseaJdmXFApDSBqj8YBfwELoxZHHW77EMcAbbwAS",
      "chain_id": "NetXdQprcVkpaWU",
      "hash": "ooMYNhrn3kzofYMYCwWFGzkMAq9a3jvsCxydnht9oofNYHjxgZq",
      "branch": "BMUWXwqnvYG2M6T4LKotUVkp8wsQbrcBwi9a1SNwQQG4HV6CbhN",
      "contents": [{
        "kind": "endorsement",
        "level": 721653,
        "metadata": {
          "balance_updates": [{
            "kind": "contract",
            "contract": "tz1PWCDnz783NNGGQjEFFsHtrcK5yBW4E2rm",
            "change": "-64000000"
          }, {
            "kind": "freezer",
            "category": "deposits",
            "delegate": "tz1PWCDnz783NNGGQjEFFsHtrcK5yBW4E2rm",
            "cycle": 176,
            "change": "64000000"
          }, {
            "kind": "freezer",
            "category": "rewards",
            "delegate": "tz1PWCDnz783NNGGQjEFFsHtrcK5yBW4E2rm",
            "cycle": 176,
            "change": "2000000"
          }],
          "delegate": "tz1PWCDnz783NNGGQjEFFsHtrcK5yBW4E2rm",
          "slots": [3]
        }
      }],
      "signature": "sigisVvrASV31A19S5ZgiwiZkqx3VboyyjTGdrFdyqqAu2Gwwkyat5P7YYUm9QJnqB3KCk3tTMPB4uhkoHthwS8xhWpXSY5q"
    }, {
      "protocol": "PsBabyM1eUXZseaJdmXFApDSBqj8YBfwELoxZHHW77EMcAbbwAS",
      "chain_id": "NetXdQprcVkpaWU",
      "hash": "ooZptDr31CpBGo2brjWsdWe6d2Ro5iXjLFyDZdT8BAZSwWBqQW6",
      "branch": "BMUWXwqnvYG2M6T4LKotUVkp8wsQbrcBwi9a1SNwQQG4HV6CbhN",
      "contents": [{
        "kind": "endorsement",
        "level": 721653,
        "metadata": {
          "balance_updates": [{
            "kind": "contract",
            "contract": "tz3VEZ4k6a4Wx42iyev6i2aVAptTRLEAivNN",
            "change": "-64000000"
          }, {
            "kind": "freezer",
            "category": "deposits",
            "delegate": "tz3VEZ4k6a4Wx42iyev6i2aVAptTRLEAivNN",
            "cycle": 176,
            "change": "64000000"
          }, {
            "kind": "freezer",
            "category": "rewards",
            "delegate": "tz3VEZ4k6a4Wx42iyev6i2aVAptTRLEAivNN",
            "cycle": 176,
            "change": "2000000"
          }],
          "delegate": "tz3VEZ4k6a4Wx42iyev6i2aVAptTRLEAivNN",
          "slots": [18]
        }
      }],
      "signature": "sigTuPYbgia9QkbHwZsonrcMm2tD2rFPnz1pcjn5BEgSxjT9QSPMu9XC5W7SQpkWCcQFSJwed8gnKEqYeM17U63AGwjoBDGu"
    }, {
      "protocol": "PsBabyM1eUXZseaJdmXFApDSBqj8YBfwELoxZHHW77EMcAbbwAS",
      "chain_id": "NetXdQprcVkpaWU",
      "hash": "ooW8W7ukKdLfLby1akHAtkbkAcNKWzAGcqrdLjzCjEueUPuH1EB",
      "branch": "BMUWXwqnvYG2M6T4LKotUVkp8wsQbrcBwi9a1SNwQQG4HV6CbhN",
      "contents": [{
        "kind": "endorsement",
        "level": 721653,
        "metadata": {
          "balance_updates": [{
            "kind": "contract",
            "contract": "tz3WMqdzXqRWXwyvj5Hp2H7QEepaUuS7vd9K",
            "change": "-256000000"
          }, {
            "kind": "freezer",
            "category": "deposits",
            "delegate": "tz3WMqdzXqRWXwyvj5Hp2H7QEepaUuS7vd9K",
            "cycle": 176,
            "change": "256000000"
          }, {
            "kind": "freezer",
            "category": "rewards",
            "delegate": "tz3WMqdzXqRWXwyvj5Hp2H7QEepaUuS7vd9K",
            "cycle": 176,
            "change": "8000000"
          }],
          "delegate": "tz3WMqdzXqRWXwyvj5Hp2H7QEepaUuS7vd9K",
          "slots": [19, 11, 8, 6]
        }
      }],
      "signature": "sigNauRgTq2aR8Cr9ohpifJpB5gL9WwopJANAt8DnCHamkGw3ZWCdGXWEpdKDnCRrLLiUviSirTfTrW31DYX4cH6YaWcJCAz"
    }, {
      "protocol": "PsBabyM1eUXZseaJdmXFApDSBqj8YBfwELoxZHHW77EMcAbbwAS",
      "chain_id": "NetXdQprcVkpaWU",
      "hash": "ontYWV26zG7HUpqsjcRkkrMNSGxoemWwJphwKXcnLiX3o7bNfa1",
      "branch": "BMUWXwqnvYG2M6T4LKotUVkp8wsQbrcBwi9a1SNwQQG4HV6CbhN",
      "contents": [{
        "kind": "endorsement",
        "level": 721653,
        "metadata": {
          "balance_updates": [{
            "kind": "contract",
            "contract": "tz1WpeqFaBG9Jm73Dmgqamy8eF8NWLz9JCoY",
            "change": "-64000000"
          }, {
            "kind": "freezer",
            "category": "deposits",
            "delegate": "tz1WpeqFaBG9Jm73Dmgqamy8eF8NWLz9JCoY",
            "cycle": 176,
            "change": "64000000"
          }, {
            "kind": "freezer",
            "category": "rewards",
            "delegate": "tz1WpeqFaBG9Jm73Dmgqamy8eF8NWLz9JCoY",
            "cycle": 176,
            "change": "2000000"
          }],
          "delegate": "tz1WpeqFaBG9Jm73Dmgqamy8eF8NWLz9JCoY",
          "slots": [2]
        }
      }],
      "signature": "sigiYG7qz3GtKLFk2wtbkrbGUy74SU45gEo1QqZC2Dv3tnnNFMyzrXd5TQQAQiC2qmgsMcNPn4DiDorGvdcT8EtFZFMJzAY3"
    }, {
      "protocol": "PsBabyM1eUXZseaJdmXFApDSBqj8YBfwELoxZHHW77EMcAbbwAS",
      "chain_id": "NetXdQprcVkpaWU",
      "hash": "oo1avehwbBfmys9cqEqzWBmgpYRxayLXg5W9s41EJxDQAdAAi4C",
      "branch": "BMUWXwqnvYG2M6T4LKotUVkp8wsQbrcBwi9a1SNwQQG4HV6CbhN",
      "contents": [{
        "kind": "endorsement",
        "level": 721653,
        "metadata": {
          "balance_updates": [{
            "kind": "contract",
            "contract": "tz1SYq214SCBy9naR6cvycQsYcUGpBqQAE8d",
            "change": "-64000000"
          }, {
            "kind": "freezer",
            "category": "deposits",
            "delegate": "tz1SYq214SCBy9naR6cvycQsYcUGpBqQAE8d",
            "cycle": 176,
            "change": "64000000"
          }, {
            "kind": "freezer",
            "category": "rewards",
            "delegate": "tz1SYq214SCBy9naR6cvycQsYcUGpBqQAE8d",
            "cycle": 176,
            "change": "2000000"
          }],
          "delegate": "tz1SYq214SCBy9naR6cvycQsYcUGpBqQAE8d",
          "slots": [30]
        }
      }],
      "signature": "siggKqdr4ViwfhxQqBUZxXFMqUpBdFKms9gZhthxKNESC9YDV5XZRwtPCYH8V9aNRpZyJ93ya9k9aK7F8dD4k4Kbdtp8GH9B"
    }, {
      "protocol": "PsBabyM1eUXZseaJdmXFApDSBqj8YBfwELoxZHHW77EMcAbbwAS",
      "chain_id": "NetXdQprcVkpaWU",
      "hash": "opWtFtmaNJrSbzhh86LMVipYQyaMM6jamzdQkVvE37FDjoJKCdr",
      "branch": "BMUWXwqnvYG2M6T4LKotUVkp8wsQbrcBwi9a1SNwQQG4HV6CbhN",
      "contents": [{
        "kind": "endorsement",
        "level": 721653,
        "metadata": {
          "balance_updates": [{
            "kind": "contract",
            "contract": "tz2TSvNTh2epDMhZHrw73nV9piBX7kLZ9K9m",
            "change": "-192000000"
          }, {
            "kind": "freezer",
            "category": "deposits",
            "delegate": "tz2TSvNTh2epDMhZHrw73nV9piBX7kLZ9K9m",
            "cycle": 176,
            "change": "192000000"
          }, {
            "kind": "freezer",
            "category": "rewards",
            "delegate": "tz2TSvNTh2epDMhZHrw73nV9piBX7kLZ9K9m",
            "cycle": 176,
            "change": "6000000"
          }],
          "delegate": "tz2TSvNTh2epDMhZHrw73nV9piBX7kLZ9K9m",
          "slots": [26, 17, 15]
        }
      }],
      "signature": "sigmeYGg1PeHgnP4XpLTwHL5YEsVuEDZ9qMRqTqxPuJhRzk59dnNViF4HW9uiyEb8DpP9jVXdqxYZWazWPnVCu8yhM8TUHni"
    }, {
      "protocol": "PsBabyM1eUXZseaJdmXFApDSBqj8YBfwELoxZHHW77EMcAbbwAS",
      "chain_id": "NetXdQprcVkpaWU",
      "hash": "onfnGvy1HdozPTtnbcKWZKVyiVwNQq52qzKA15BM8unDEhBGuWM",
      "branch": "BMUWXwqnvYG2M6T4LKotUVkp8wsQbrcBwi9a1SNwQQG4HV6CbhN",
      "contents": [{
        "kind": "endorsement",
        "level": 721653,
        "metadata": {
          "balance_updates": [{
            "kind": "contract",
            "contract": "tz3NExpXn9aPNZPorRE4SdjJ2RGrfbJgMAaV",
            "change": "-64000000"
          }, {
            "kind": "freezer",
            "category": "deposits",
            "delegate": "tz3NExpXn9aPNZPorRE4SdjJ2RGrfbJgMAaV",
            "cycle": 176,
            "change": "64000000"
          }, {
            "kind": "freezer",
            "category": "rewards",
            "delegate": "tz3NExpXn9aPNZPorRE4SdjJ2RGrfbJgMAaV",
            "cycle": 176,
            "change": "2000000"
          }],
          "delegate": "tz3NExpXn9aPNZPorRE4SdjJ2RGrfbJgMAaV",
          "slots": [29]
        }
      }],
      "signature": "sigZRNPHoAwypVTXZStQCs8USLAwsFee5eB4iJskCTe9QRCtYJvvGbUL7KC2rAMzjEHLjofva9mc8r1borf1EPXttURcZYFD"
    }, {
      "protocol": "PsBabyM1eUXZseaJdmXFApDSBqj8YBfwELoxZHHW77EMcAbbwAS",
      "chain_id": "NetXdQprcVkpaWU",
      "hash": "op7WwNFhzLqtkyYJf5ZbkHaPbuheHDZsDpP5qjaTGccyndCJn8r",
      "branch": "BMUWXwqnvYG2M6T4LKotUVkp8wsQbrcBwi9a1SNwQQG4HV6CbhN",
      "contents": [{
        "kind": "endorsement",
        "level": 721653,
        "metadata": {
          "balance_updates": [{
            "kind": "contract",
            "contract": "tz1Kt4P8BCaP93AEV4eA7gmpRryWt5hznjCP",
            "change": "-64000000"
          }, {
            "kind": "freezer",
            "category": "deposits",
            "delegate": "tz1Kt4P8BCaP93AEV4eA7gmpRryWt5hznjCP",
            "cycle": 176,
            "change": "64000000"
          }, {
            "kind": "freezer",
            "category": "rewards",
            "delegate": "tz1Kt4P8BCaP93AEV4eA7gmpRryWt5hznjCP",
            "cycle": 176,
            "change": "2000000"
          }],
          "delegate": "tz1Kt4P8BCaP93AEV4eA7gmpRryWt5hznjCP",
          "slots": [10]
        }
      }],
      "signature": "sigPo7uf1tnAoKwsMFz1DdvZrUw9bhJXmimzquAUWJDWXL4CJouVN6hfaSHU6qWg88vMLkkXJtxkfPpva8Rfe3T7Hwe5zqNY"
    }, {
      "protocol": "PsBabyM1eUXZseaJdmXFApDSBqj8YBfwELoxZHHW77EMcAbbwAS",
      "chain_id": "NetXdQprcVkpaWU",
      "hash": "ooTS1ptZDM1iAyc9boHAwyeGL3Cw7dy8Rf73gx6M2SXXMo9uirZ",
      "branch": "BMUWXwqnvYG2M6T4LKotUVkp8wsQbrcBwi9a1SNwQQG4HV6CbhN",
      "contents": [{
        "kind": "endorsement",
        "level": 721653,
        "metadata": {
          "balance_updates": [{
            "kind": "contract",
            "contract": "tz3RB4aoyjov4KEVRbuhvQ1CKJgBJMWhaeB8",
            "change": "-128000000"
          }, {
            "kind": "freezer",
            "category": "deposits",
            "delegate": "tz3RB4aoyjov4KEVRbuhvQ1CKJgBJMWhaeB8",
            "cycle": 176,
            "change": "128000000"
          }, {
            "kind": "freezer",
            "category": "rewards",
            "delegate": "tz3RB4aoyjov4KEVRbuhvQ1CKJgBJMWhaeB8",
            "cycle": 176,
            "change": "4000000"
          }],
          "delegate": "tz3RB4aoyjov4KEVRbuhvQ1CKJgBJMWhaeB8",
          "slots": [21, 16]
        }
      }],
      "signature": "sigd7QFDACQdiLcz5EwTAeNRWv73WxiJBXXUcB6TjfDa5Kow1ySboLybeqHfMNEfGwYgcZmhYUZ8A8qFHwANHZwP5JatN3WC"
    }],
    [],
    [],
    []
  ]
}
