[{
  "contents": [{
    "kind": "transaction",
    "source": "tz1XVJ8bZUXs7r5NV8dHvuiBhzECvLRLR3jW",
    "fee": "1407",
    "counter": "2184",
    "gas_limit": "800000",
    "storage_limit": "60000",
    "amount": "1",
    "destination": "tz1WRoqRuEZqeh2MXpxEeKmGk89Wv9Ad4GyC",
    "metadata": {
      "balance_updates": [{
        "kind": "contract",
        "contract": "tz1XVJ8bZUXs7r5NV8dHvuiBhzECvLRLR3jW",
        "change": "-1407"
      }, {
        "kind": "freezer",
        "category": "fees",
        "delegate": "tz1Ke2h7sDdakHJQh8WX4Z372du1KChsksyU",
        "cycle": 74,
        "change": "1407"
      }],
      "operation_result": {
        "status": "applied",
        "balance_updates": [{
          "kind": "contract",
          "contract": "tz1XVJ8bZUXs7r5NV8dHvuiBhzECvLRLR3jW",
          "change": "-1"
        }, {
          "kind": "contract",
          "contract": "tz1WRoqRuEZqeh2MXpxEeKmGk89Wv9Ad4GyC",
          "change": "1"
        }],
        "consumed_gas": "10207"
      }
    }
  }],
  "signature": "edsigu2frnabEbNGzYRxzB6KEYq82s9WjMiMwBuQ54YSirs9VqCdDafdNkDB9YQpqCtHrZ6G86MxuLoeFmd3DRAZmFRLiYGb326"
}]
